<?xml version="1.0" encoding="UTF-8" standalone="yes"?>
<!-- Created with qrencode 4.1.1 (https://fukuchi.org/works/qrencode/index.html) -->
<svg width="4.34cm" height="4.34cm" viewBox="0 0 41 41" preserveAspectRatio="none" version="1.1" xmlns="http://www.w3.org/2000/svg">
	<g id="QRcode">
		<rect x="0" y="0" width="41" height="41" fill="#ffffff"/>
		<g id="Pattern" transform="translate(0,0)">
			<rect x="0" y="0" width="1" height="1" fill="#000000"/>
			<rect x="1" y="0" width="1" height="1" fill="#000000"/>
			<rect x="2" y="0" width="1" height="1" fill="#000000"/>
			<rect x="3" y="0" width="1" height="1" fill="#000000"/>
			<rect x="4" y="0" width="1" height="1" fill="#000000"/>
			<rect x="5" y="0" width="1" height="1" fill="#000000"/>
			<rect x="6" y="0" width="1" height="1" fill="#000000"/>
			<rect x="8" y="0" width="1" height="1" fill="#000000"/>
			<rect x="9" y="0" width="1" height="1" fill="#000000"/>
			<rect x="10" y="0" width="1" height="1" fill="#000000"/>
			<rect x="11" y="0" width="1" height="1" fill="#000000"/>
			<rect x="13" y="0" width="1" height="1" fill="#000000"/>
			<rect x="14" y="0" width="1" height="1" fill="#000000"/>
			<rect x="15" y="0" width="1" height="1" fill="#000000"/>
			<rect x="20" y="0" width="1" height="1" fill="#000000"/>
			<rect x="23" y="0" width="1" height="1" fill="#000000"/>
			<rect x="25" y="0" width="1" height="1" fill="#000000"/>
			<rect x="26" y="0" width="1" height="1" fill="#000000"/>
			<rect x="27" y="0" width="1" height="1" fill="#000000"/>
			<rect x="28" y="0" width="1" height="1" fill="#000000"/>
			<rect x="30" y="0" width="1" height="1" fill="#000000"/>
			<rect x="32" y="0" width="1" height="1" fill="#000000"/>
			<rect x="34" y="0" width="1" height="1" fill="#000000"/>
			<rect x="35" y="0" width="1" height="1" fill="#000000"/>
			<rect x="36" y="0" width="1" height="1" fill="#000000"/>
			<rect x="37" y="0" width="1" height="1" fill="#000000"/>
			<rect x="38" y="0" width="1" height="1" fill="#000000"/>
			<rect x="39" y="0" width="1" height="1" fill="#000000"/>
			<rect x="40" y="0" width="1" height="1" fill="#000000"/>
			<rect x="0" y="1" width="1" height="1" fill="#000000"/>
			<rect x="6" y="1" width="1" height="1" fill="#000000"/>
			<rect x="8" y="1" width="1" height="1" fill="#000000"/>
			<rect x="9" y="1" width="1" height="1" fill="#000000"/>
			<rect x="12" y="1" width="1" height="1" fill="#000000"/>
			<rect x="13" y="1" width="1" height="1" fill="#000000"/>
			<rect x="14" y="1" width="1" height="1" fill="#000000"/>
			<rect x="18" y="1" width="1" height="1" fill="#000000"/>
			<rect x="19" y="1" width="1" height="1" fill="#000000"/>
			<rect x="20" y="1" width="1" height="1" fill="#000000"/>
			<rect x="21" y="1" width="1" height="1" fill="#000000"/>
			<rect x="29" y="1" width="1" height="1" fill="#000000"/>
			<rect x="30" y="1" width="1" height="1" fill="#000000"/>
			<rect x="31" y="1" width="1" height="1" fill="#000000"/>
			<rect x="34" y="1" width="1" height="1" fill="#000000"/>
			<rect x="40" y="1" width="1" height="1" fill="#000000"/>
			<rect x="0" y="2" width="1" height="1" fill="#000000"/>
			<rect x="2" y="2" width="1" height="1" fill="#000000"/>
			<rect x="3" y="2" width="1" height="1" fill="#000000"/>
			<rect x="4" y="2" width="1" height="1" fill="#000000"/>
			<rect x="6" y="2" width="1" height="1" fill="#000000"/>
			<rect x="8" y="2" width="1" height="1" fill="#000000"/>
			<rect x="12" y="2" width="1" height="1" fill="#000000"/>
			<rect x="14" y="2" width="1" height="1" fill="#000000"/>
			<rect x="17" y="2" width="1" height="1" fill="#000000"/>
			<rect x="18" y="2" width="1" height="1" fill="#000000"/>
			<rect x="19" y="2" width="1" height="1" fill="#000000"/>
			<rect x="20" y="2" width="1" height="1" fill="#000000"/>
			<rect x="22" y="2" width="1" height="1" fill="#000000"/>
			<rect x="24" y="2" width="1" height="1" fill="#000000"/>
			<rect x="27" y="2" width="1" height="1" fill="#000000"/>
			<rect x="32" y="2" width="1" height="1" fill="#000000"/>
			<rect x="34" y="2" width="1" height="1" fill="#000000"/>
			<rect x="36" y="2" width="1" height="1" fill="#000000"/>
			<rect x="37" y="2" width="1" height="1" fill="#000000"/>
			<rect x="38" y="2" width="1" height="1" fill="#000000"/>
			<rect x="40" y="2" width="1" height="1" fill="#000000"/>
			<rect x="0" y="3" width="1" height="1" fill="#000000"/>
			<rect x="2" y="3" width="1" height="1" fill="#000000"/>
			<rect x="3" y="3" width="1" height="1" fill="#000000"/>
			<rect x="4" y="3" width="1" height="1" fill="#000000"/>
			<rect x="6" y="3" width="1" height="1" fill="#000000"/>
			<rect x="8" y="3" width="1" height="1" fill="#000000"/>
			<rect x="9" y="3" width="1" height="1" fill="#000000"/>
			<rect x="11" y="3" width="1" height="1" fill="#000000"/>
			<rect x="12" y="3" width="1" height="1" fill="#000000"/>
			<rect x="15" y="3" width="1" height="1" fill="#000000"/>
			<rect x="16" y="3" width="1" height="1" fill="#000000"/>
			<rect x="17" y="3" width="1" height="1" fill="#000000"/>
			<rect x="23" y="3" width="1" height="1" fill="#000000"/>
			<rect x="25" y="3" width="1" height="1" fill="#000000"/>
			<rect x="26" y="3" width="1" height="1" fill="#000000"/>
			<rect x="27" y="3" width="1" height="1" fill="#000000"/>
			<rect x="30" y="3" width="1" height="1" fill="#000000"/>
			<rect x="31" y="3" width="1" height="1" fill="#000000"/>
			<rect x="32" y="3" width="1" height="1" fill="#000000"/>
			<rect x="34" y="3" width="1" height="1" fill="#000000"/>
			<rect x="36" y="3" width="1" height="1" fill="#000000"/>
			<rect x="37" y="3" width="1" height="1" fill="#000000"/>
			<rect x="38" y="3" width="1" height="1" fill="#000000"/>
			<rect x="40" y="3" width="1" height="1" fill="#000000"/>
			<rect x="0" y="4" width="1" height="1" fill="#000000"/>
			<rect x="2" y="4" width="1" height="1" fill="#000000"/>
			<rect x="3" y="4" width="1" height="1" fill="#000000"/>
			<rect x="4" y="4" width="1" height="1" fill="#000000"/>
			<rect x="6" y="4" width="1" height="1" fill="#000000"/>
			<rect x="12" y="4" width="1" height="1" fill="#000000"/>
			<rect x="13" y="4" width="1" height="1" fill="#000000"/>
			<rect x="16" y="4" width="1" height="1" fill="#000000"/>
			<rect x="19" y="4" width="1" height="1" fill="#000000"/>
			<rect x="23" y="4" width="1" height="1" fill="#000000"/>
			<rect x="28" y="4" width="1" height="1" fill="#000000"/>
			<rect x="29" y="4" width="1" height="1" fill="#000000"/>
			<rect x="32" y="4" width="1" height="1" fill="#000000"/>
			<rect x="34" y="4" width="1" height="1" fill="#000000"/>
			<rect x="36" y="4" width="1" height="1" fill="#000000"/>
			<rect x="37" y="4" width="1" height="1" fill="#000000"/>
			<rect x="38" y="4" width="1" height="1" fill="#000000"/>
			<rect x="40" y="4" width="1" height="1" fill="#000000"/>
			<rect x="0" y="5" width="1" height="1" fill="#000000"/>
			<rect x="6" y="5" width="1" height="1" fill="#000000"/>
			<rect x="8" y="5" width="1" height="1" fill="#000000"/>
			<rect x="11" y="5" width="1" height="1" fill="#000000"/>
			<rect x="12" y="5" width="1" height="1" fill="#000000"/>
			<rect x="15" y="5" width="1" height="1" fill="#000000"/>
			<rect x="17" y="5" width="1" height="1" fill="#000000"/>
			<rect x="20" y="5" width="1" height="1" fill="#000000"/>
			<rect x="21" y="5" width="1" height="1" fill="#000000"/>
			<rect x="23" y="5" width="1" height="1" fill="#000000"/>
			<rect x="24" y="5" width="1" height="1" fill="#000000"/>
			<rect x="25" y="5" width="1" height="1" fill="#000000"/>
			<rect x="26" y="5" width="1" height="1" fill="#000000"/>
			<rect x="29" y="5" width="1" height="1" fill="#000000"/>
			<rect x="31" y="5" width="1" height="1" fill="#000000"/>
			<rect x="34" y="5" width="1" height="1" fill="#000000"/>
			<rect x="40" y="5" width="1" height="1" fill="#000000"/>
			<rect x="0" y="6" width="1" height="1" fill="#000000"/>
			<rect x="1" y="6" width="1" height="1" fill="#000000"/>
			<rect x="2" y="6" width="1" height="1" fill="#000000"/>
			<rect x="3" y="6" width="1" height="1" fill="#000000"/>
			<rect x="4" y="6" width="1" height="1" fill="#000000"/>
			<rect x="5" y="6" width="1" height="1" fill="#000000"/>
			<rect x="6" y="6" width="1" height="1" fill="#000000"/>
			<rect x="8" y="6" width="1" height="1" fill="#000000"/>
			<rect x="10" y="6" width="1" height="1" fill="#000000"/>
			<rect x="12" y="6" width="1" height="1" fill="#000000"/>
			<rect x="14" y="6" width="1" height="1" fill="#000000"/>
			<rect x="16" y="6" width="1" height="1" fill="#000000"/>
			<rect x="18" y="6" width="1" height="1" fill="#000000"/>
			<rect x="20" y="6" width="1" height="1" fill="#000000"/>
			<rect x="22" y="6" width="1" height="1" fill="#000000"/>
			<rect x="24" y="6" width="1" height="1" fill="#000000"/>
			<rect x="26" y="6" width="1" height="1" fill="#000000"/>
			<rect x="28" y="6" width="1" height="1" fill="#000000"/>
			<rect x="30" y="6" width="1" height="1" fill="#000000"/>
			<rect x="32" y="6" width="1" height="1" fill="#000000"/>
			<rect x="34" y="6" width="1" height="1" fill="#000000"/>
			<rect x="35" y="6" width="1" height="1" fill="#000000"/>
			<rect x="36" y="6" width="1" height="1" fill="#000000"/>
			<rect x="37" y="6" width="1" height="1" fill="#000000"/>
			<rect x="38" y="6" width="1" height="1" fill="#000000"/>
			<rect x="39" y="6" width="1" height="1" fill="#000000"/>
			<rect x="40" y="6" width="1" height="1" fill="#000000"/>
			<rect x="12" y="7" width="1" height="1" fill="#000000"/>
			<rect x="13" y="7" width="1" height="1" fill="#000000"/>
			<rect x="19" y="7" width="1" height="1" fill="#000000"/>
			<rect x="20" y="7" width="1" height="1" fill="#000000"/>
			<rect x="21" y="7" width="1" height="1" fill="#000000"/>
			<rect x="22" y="7" width="1" height="1" fill="#000000"/>
			<rect x="24" y="7" width="1" height="1" fill="#000000"/>
			<rect x="29" y="7" width="1" height="1" fill="#000000"/>
			<rect x="30" y="7" width="1" height="1" fill="#000000"/>
			<rect x="31" y="7" width="1" height="1" fill="#000000"/>
			<rect x="32" y="7" width="1" height="1" fill="#000000"/>
			<rect x="0" y="8" width="1" height="1" fill="#000000"/>
			<rect x="1" y="8" width="1" height="1" fill="#000000"/>
			<rect x="4" y="8" width="1" height="1" fill="#000000"/>
			<rect x="5" y="8" width="1" height="1" fill="#000000"/>
			<rect x="6" y="8" width="1" height="1" fill="#000000"/>
			<rect x="11" y="8" width="1" height="1" fill="#000000"/>
			<rect x="13" y="8" width="1" height="1" fill="#000000"/>
			<rect x="15" y="8" width="1" height="1" fill="#000000"/>
			<rect x="16" y="8" width="1" height="1" fill="#000000"/>
			<rect x="17" y="8" width="1" height="1" fill="#000000"/>
			<rect x="21" y="8" width="1" height="1" fill="#000000"/>
			<rect x="22" y="8" width="1" height="1" fill="#000000"/>
			<rect x="28" y="8" width="1" height="1" fill="#000000"/>
			<rect x="29" y="8" width="1" height="1" fill="#000000"/>
			<rect x="31" y="8" width="1" height="1" fill="#000000"/>
			<rect x="32" y="8" width="1" height="1" fill="#000000"/>
			<rect x="35" y="8" width="1" height="1" fill="#000000"/>
			<rect x="37" y="8" width="1" height="1" fill="#000000"/>
			<rect x="38" y="8" width="1" height="1" fill="#000000"/>
			<rect x="39" y="8" width="1" height="1" fill="#000000"/>
			<rect x="40" y="8" width="1" height="1" fill="#000000"/>
			<rect x="0" y="9" width="1" height="1" fill="#000000"/>
			<rect x="1" y="9" width="1" height="1" fill="#000000"/>
			<rect x="2" y="9" width="1" height="1" fill="#000000"/>
			<rect x="3" y="9" width="1" height="1" fill="#000000"/>
			<rect x="4" y="9" width="1" height="1" fill="#000000"/>
			<rect x="7" y="9" width="1" height="1" fill="#000000"/>
			<rect x="8" y="9" width="1" height="1" fill="#000000"/>
			<rect x="9" y="9" width="1" height="1" fill="#000000"/>
			<rect x="10" y="9" width="1" height="1" fill="#000000"/>
			<rect x="11" y="9" width="1" height="1" fill="#000000"/>
			<rect x="12" y="9" width="1" height="1" fill="#000000"/>
			<rect x="14" y="9" width="1" height="1" fill="#000000"/>
			<rect x="15" y="9" width="1" height="1" fill="#000000"/>
			<rect x="16" y="9" width="1" height="1" fill="#000000"/>
			<rect x="17" y="9" width="1" height="1" fill="#000000"/>
			<rect x="19" y="9" width="1" height="1" fill="#000000"/>
			<rect x="23" y="9" width="1" height="1" fill="#000000"/>
			<rect x="25" y="9" width="1" height="1" fill="#000000"/>
			<rect x="26" y="9" width="1" height="1" fill="#000000"/>
			<rect x="27" y="9" width="1" height="1" fill="#000000"/>
			<rect x="28" y="9" width="1" height="1" fill="#000000"/>
			<rect x="33" y="9" width="1" height="1" fill="#000000"/>
			<rect x="34" y="9" width="1" height="1" fill="#000000"/>
			<rect x="35" y="9" width="1" height="1" fill="#000000"/>
			<rect x="36" y="9" width="1" height="1" fill="#000000"/>
			<rect x="38" y="9" width="1" height="1" fill="#000000"/>
			<rect x="0" y="10" width="1" height="1" fill="#000000"/>
			<rect x="5" y="10" width="1" height="1" fill="#000000"/>
			<rect x="6" y="10" width="1" height="1" fill="#000000"/>
			<rect x="7" y="10" width="1" height="1" fill="#000000"/>
			<rect x="9" y="10" width="1" height="1" fill="#000000"/>
			<rect x="11" y="10" width="1" height="1" fill="#000000"/>
			<rect x="13" y="10" width="1" height="1" fill="#000000"/>
			<rect x="14" y="10" width="1" height="1" fill="#000000"/>
			<rect x="16" y="10" width="1" height="1" fill="#000000"/>
			<rect x="18" y="10" width="1" height="1" fill="#000000"/>
			<rect x="19" y="10" width="1" height="1" fill="#000000"/>
			<rect x="23" y="10" width="1" height="1" fill="#000000"/>
			<rect x="24" y="10" width="1" height="1" fill="#000000"/>
			<rect x="25" y="10" width="1" height="1" fill="#000000"/>
			<rect x="26" y="10" width="1" height="1" fill="#000000"/>
			<rect x="27" y="10" width="1" height="1" fill="#000000"/>
			<rect x="30" y="10" width="1" height="1" fill="#000000"/>
			<rect x="32" y="10" width="1" height="1" fill="#000000"/>
			<rect x="34" y="10" width="1" height="1" fill="#000000"/>
			<rect x="39" y="10" width="1" height="1" fill="#000000"/>
			<rect x="40" y="10" width="1" height="1" fill="#000000"/>
			<rect x="0" y="11" width="1" height="1" fill="#000000"/>
			<rect x="1" y="11" width="1" height="1" fill="#000000"/>
			<rect x="2" y="11" width="1" height="1" fill="#000000"/>
			<rect x="4" y="11" width="1" height="1" fill="#000000"/>
			<rect x="5" y="11" width="1" height="1" fill="#000000"/>
			<rect x="7" y="11" width="1" height="1" fill="#000000"/>
			<rect x="9" y="11" width="1" height="1" fill="#000000"/>
			<rect x="11" y="11" width="1" height="1" fill="#000000"/>
			<rect x="12" y="11" width="1" height="1" fill="#000000"/>
			<rect x="13" y="11" width="1" height="1" fill="#000000"/>
			<rect x="16" y="11" width="1" height="1" fill="#000000"/>
			<rect x="19" y="11" width="1" height="1" fill="#000000"/>
			<rect x="21" y="11" width="1" height="1" fill="#000000"/>
			<rect x="24" y="11" width="1" height="1" fill="#000000"/>
			<rect x="25" y="11" width="1" height="1" fill="#000000"/>
			<rect x="29" y="11" width="1" height="1" fill="#000000"/>
			<rect x="30" y="11" width="1" height="1" fill="#000000"/>
			<rect x="31" y="11" width="1" height="1" fill="#000000"/>
			<rect x="32" y="11" width="1" height="1" fill="#000000"/>
			<rect x="33" y="11" width="1" height="1" fill="#000000"/>
			<rect x="35" y="11" width="1" height="1" fill="#000000"/>
			<rect x="36" y="11" width="1" height="1" fill="#000000"/>
			<rect x="37" y="11" width="1" height="1" fill="#000000"/>
			<rect x="0" y="12" width="1" height="1" fill="#000000"/>
			<rect x="1" y="12" width="1" height="1" fill="#000000"/>
			<rect x="2" y="12" width="1" height="1" fill="#000000"/>
			<rect x="5" y="12" width="1" height="1" fill="#000000"/>
			<rect x="6" y="12" width="1" height="1" fill="#000000"/>
			<rect x="9" y="12" width="1" height="1" fill="#000000"/>
			<rect x="13" y="12" width="1" height="1" fill="#000000"/>
			<rect x="16" y="12" width="1" height="1" fill="#000000"/>
			<rect x="19" y="12" width="1" height="1" fill="#000000"/>
			<rect x="23" y="12" width="1" height="1" fill="#000000"/>
			<rect x="25" y="12" width="1" height="1" fill="#000000"/>
			<rect x="26" y="12" width="1" height="1" fill="#000000"/>
			<rect x="27" y="12" width="1" height="1" fill="#000000"/>
			<rect x="29" y="12" width="1" height="1" fill="#000000"/>
			<rect x="30" y="12" width="1" height="1" fill="#000000"/>
			<rect x="36" y="12" width="1" height="1" fill="#000000"/>
			<rect x="3" y="13" width="1" height="1" fill="#000000"/>
			<rect x="4" y="13" width="1" height="1" fill="#000000"/>
			<rect x="5" y="13" width="1" height="1" fill="#000000"/>
			<rect x="9" y="13" width="1" height="1" fill="#000000"/>
			<rect x="10" y="13" width="1" height="1" fill="#000000"/>
			<rect x="12" y="13" width="1" height="1" fill="#000000"/>
			<rect x="13" y="13" width="1" height="1" fill="#000000"/>
			<rect x="14" y="13" width="1" height="1" fill="#000000"/>
			<rect x="18" y="13" width="1" height="1" fill="#000000"/>
			<rect x="19" y="13" width="1" height="1" fill="#000000"/>
			<rect x="20" y="13" width="1" height="1" fill="#000000"/>
			<rect x="21" y="13" width="1" height="1" fill="#000000"/>
			<rect x="23" y="13" width="1" height="1" fill="#000000"/>
			<rect x="25" y="13" width="1" height="1" fill="#000000"/>
			<rect x="27" y="13" width="1" height="1" fill="#000000"/>
			<rect x="31" y="13" width="1" height="1" fill="#000000"/>
			<rect x="33" y="13" width="1" height="1" fill="#000000"/>
			<rect x="36" y="13" width="1" height="1" fill="#000000"/>
			<rect x="37" y="13" width="1" height="1" fill="#000000"/>
			<rect x="38" y="13" width="1" height="1" fill="#000000"/>
			<rect x="39" y="13" width="1" height="1" fill="#000000"/>
			<rect x="40" y="13" width="1" height="1" fill="#000000"/>
			<rect x="0" y="14" width="1" height="1" fill="#000000"/>
			<rect x="1" y="14" width="1" height="1" fill="#000000"/>
			<rect x="2" y="14" width="1" height="1" fill="#000000"/>
			<rect x="4" y="14" width="1" height="1" fill="#000000"/>
			<rect x="5" y="14" width="1" height="1" fill="#000000"/>
			<rect x="6" y="14" width="1" height="1" fill="#000000"/>
			<rect x="8" y="14" width="1" height="1" fill="#000000"/>
			<rect x="10" y="14" width="1" height="1" fill="#000000"/>
			<rect x="11" y="14" width="1" height="1" fill="#000000"/>
			<rect x="12" y="14" width="1" height="1" fill="#000000"/>
			<rect x="13" y="14" width="1" height="1" fill="#000000"/>
			<rect x="14" y="14" width="1" height="1" fill="#000000"/>
			<rect x="15" y="14" width="1" height="1" fill="#000000"/>
			<rect x="18" y="14" width="1" height="1" fill="#000000"/>
			<rect x="20" y="14" width="1" height="1" fill="#000000"/>
			<rect x="21" y="14" width="1" height="1" fill="#000000"/>
			<rect x="22" y="14" width="1" height="1" fill="#000000"/>
			<rect x="27" y="14" width="1" height="1" fill="#000000"/>
			<rect x="34" y="14" width="1" height="1" fill="#000000"/>
			<rect x="36" y="14" width="1" height="1" fill="#000000"/>
			<rect x="38" y="14" width="1" height="1" fill="#000000"/>
			<rect x="40" y="14" width="1" height="1" fill="#000000"/>
			<rect x="0" y="15" width="1" height="1" fill="#000000"/>
			<rect x="2" y="15" width="1" height="1" fill="#000000"/>
			<rect x="3" y="15" width="1" height="1" fill="#000000"/>
			<rect x="4" y="15" width="1" height="1" fill="#000000"/>
			<rect x="5" y="15" width="1" height="1" fill="#000000"/>
			<rect x="8" y="15" width="1" height="1" fill="#000000"/>
			<rect x="10" y="15" width="1" height="1" fill="#000000"/>
			<rect x="11" y="15" width="1" height="1" fill="#000000"/>
			<rect x="13" y="15" width="1" height="1" fill="#000000"/>
			<rect x="15" y="15" width="1" height="1" fill="#000000"/>
			<rect x="16" y="15" width="1" height="1" fill="#000000"/>
			<rect x="21" y="15" width="1" height="1" fill="#000000"/>
			<rect x="24" y="15" width="1" height="1" fill="#000000"/>
			<rect x="26" y="15" width="1" height="1" fill="#000000"/>
			<rect x="29" y="15" width="1" height="1" fill="#000000"/>
			<rect x="31" y="15" width="1" height="1" fill="#000000"/>
			<rect x="32" y="15" width="1" height="1" fill="#000000"/>
			<rect x="33" y="15" width="1" height="1" fill="#000000"/>
			<rect x="34" y="15" width="1" height="1" fill="#000000"/>
			<rect x="37" y="15" width="1" height="1" fill="#000000"/>
			<rect x="38" y="15" width="1" height="1" fill="#000000"/>
			<rect x="39" y="15" width="1" height="1" fill="#000000"/>
			<rect x="40" y="15" width="1" height="1" fill="#000000"/>
			<rect x="1" y="16" width="1" height="1" fill="#000000"/>
			<rect x="4" y="16" width="1" height="1" fill="#000000"/>
			<rect x="6" y="16" width="1" height="1" fill="#000000"/>
			<rect x="9" y="16" width="1" height="1" fill="#000000"/>
			<rect x="12" y="16" width="1" height="1" fill="#000000"/>
			<rect x="16" y="16" width="1" height="1" fill="#000000"/>
			<rect x="17" y="16" width="1" height="1" fill="#000000"/>
			<rect x="19" y="16" width="1" height="1" fill="#000000"/>
			<rect x="20" y="16" width="1" height="1" fill="#000000"/>
			<rect x="21" y="16" width="1" height="1" fill="#000000"/>
			<rect x="22" y="16" width="1" height="1" fill="#000000"/>
			<rect x="24" y="16" width="1" height="1" fill="#000000"/>
			<rect x="29" y="16" width="1" height="1" fill="#000000"/>
			<rect x="31" y="16" width="1" height="1" fill="#000000"/>
			<rect x="32" y="16" width="1" height="1" fill="#000000"/>
			<rect x="33" y="16" width="1" height="1" fill="#000000"/>
			<rect x="38" y="16" width="1" height="1" fill="#000000"/>
			<rect x="39" y="16" width="1" height="1" fill="#000000"/>
			<rect x="1" y="17" width="1" height="1" fill="#000000"/>
			<rect x="2" y="17" width="1" height="1" fill="#000000"/>
			<rect x="3" y="17" width="1" height="1" fill="#000000"/>
			<rect x="5" y="17" width="1" height="1" fill="#000000"/>
			<rect x="9" y="17" width="1" height="1" fill="#000000"/>
			<rect x="11" y="17" width="1" height="1" fill="#000000"/>
			<rect x="12" y="17" width="1" height="1" fill="#000000"/>
			<rect x="13" y="17" width="1" height="1" fill="#000000"/>
			<rect x="16" y="17" width="1" height="1" fill="#000000"/>
			<rect x="18" y="17" width="1" height="1" fill="#000000"/>
			<rect x="19" y="17" width="1" height="1" fill="#000000"/>
			<rect x="20" y="17" width="1" height="1" fill="#000000"/>
			<rect x="22" y="17" width="1" height="1" fill="#000000"/>
			<rect x="23" y="17" width="1" height="1" fill="#000000"/>
			<rect x="24" y="17" width="1" height="1" fill="#000000"/>
			<rect x="25" y="17" width="1" height="1" fill="#000000"/>
			<rect x="27" y="17" width="1" height="1" fill="#000000"/>
			<rect x="28" y="17" width="1" height="1" fill="#000000"/>
			<rect x="30" y="17" width="1" height="1" fill="#000000"/>
			<rect x="34" y="17" width="1" height="1" fill="#000000"/>
			<rect x="35" y="17" width="1" height="1" fill="#000000"/>
			<rect x="36" y="17" width="1" height="1" fill="#000000"/>
			<rect x="37" y="17" width="1" height="1" fill="#000000"/>
			<rect x="38" y="17" width="1" height="1" fill="#000000"/>
			<rect x="40" y="17" width="1" height="1" fill="#000000"/>
			<rect x="0" y="18" width="1" height="1" fill="#000000"/>
			<rect x="2" y="18" width="1" height="1" fill="#000000"/>
			<rect x="3" y="18" width="1" height="1" fill="#000000"/>
			<rect x="4" y="18" width="1" height="1" fill="#000000"/>
			<rect x="6" y="18" width="1" height="1" fill="#000000"/>
			<rect x="9" y="18" width="1" height="1" fill="#000000"/>
			<rect x="11" y="18" width="1" height="1" fill="#000000"/>
			<rect x="12" y="18" width="1" height="1" fill="#000000"/>
			<rect x="16" y="18" width="1" height="1" fill="#000000"/>
			<rect x="17" y="18" width="1" height="1" fill="#000000"/>
			<rect x="20" y="18" width="1" height="1" fill="#000000"/>
			<rect x="23" y="18" width="1" height="1" fill="#000000"/>
			<rect x="25" y="18" width="1" height="1" fill="#000000"/>
			<rect x="26" y="18" width="1" height="1" fill="#000000"/>
			<rect x="27" y="18" width="1" height="1" fill="#000000"/>
			<rect x="28" y="18" width="1" height="1" fill="#000000"/>
			<rect x="30" y="18" width="1" height="1" fill="#000000"/>
			<rect x="32" y="18" width="1" height="1" fill="#000000"/>
			<rect x="34" y="18" width="1" height="1" fill="#000000"/>
			<rect x="36" y="18" width="1" height="1" fill="#000000"/>
			<rect x="39" y="18" width="1" height="1" fill="#000000"/>
			<rect x="40" y="18" width="1" height="1" fill="#000000"/>
			<rect x="0" y="19" width="1" height="1" fill="#000000"/>
			<rect x="5" y="19" width="1" height="1" fill="#000000"/>
			<rect x="7" y="19" width="1" height="1" fill="#000000"/>
			<rect x="10" y="19" width="1" height="1" fill="#000000"/>
			<rect x="11" y="19" width="1" height="1" fill="#000000"/>
			<rect x="12" y="19" width="1" height="1" fill="#000000"/>
			<rect x="14" y="19" width="1" height="1" fill="#000000"/>
			<rect x="16" y="19" width="1" height="1" fill="#000000"/>
			<rect x="17" y="19" width="1" height="1" fill="#000000"/>
			<rect x="18" y="19" width="1" height="1" fill="#000000"/>
			<rect x="19" y="19" width="1" height="1" fill="#000000"/>
			<rect x="21" y="19" width="1" height="1" fill="#000000"/>
			<rect x="22" y="19" width="1" height="1" fill="#000000"/>
			<rect x="24" y="19" width="1" height="1" fill="#000000"/>
			<rect x="26" y="19" width="1" height="1" fill="#000000"/>
			<rect x="28" y="19" width="1" height="1" fill="#000000"/>
			<rect x="29" y="19" width="1" height="1" fill="#000000"/>
			<rect x="31" y="19" width="1" height="1" fill="#000000"/>
			<rect x="37" y="19" width="1" height="1" fill="#000000"/>
			<rect x="0" y="20" width="1" height="1" fill="#000000"/>
			<rect x="2" y="20" width="1" height="1" fill="#000000"/>
			<rect x="3" y="20" width="1" height="1" fill="#000000"/>
			<rect x="4" y="20" width="1" height="1" fill="#000000"/>
			<rect x="5" y="20" width="1" height="1" fill="#000000"/>
			<rect x="6" y="20" width="1" height="1" fill="#000000"/>
			<rect x="7" y="20" width="1" height="1" fill="#000000"/>
			<rect x="8" y="20" width="1" height="1" fill="#000000"/>
			<rect x="10" y="20" width="1" height="1" fill="#000000"/>
			<rect x="12" y="20" width="1" height="1" fill="#000000"/>
			<rect x="13" y="20" width="1" height="1" fill="#000000"/>
			<rect x="14" y="20" width="1" height="1" fill="#000000"/>
			<rect x="18" y="20" width="1" height="1" fill="#000000"/>
			<rect x="19" y="20" width="1" height="1" fill="#000000"/>
			<rect x="20" y="20" width="1" height="1" fill="#000000"/>
			<rect x="22" y="20" width="1" height="1" fill="#000000"/>
			<rect x="23" y="20" width="1" height="1" fill="#000000"/>
			<rect x="26" y="20" width="1" height="1" fill="#000000"/>
			<rect x="28" y="20" width="1" height="1" fill="#000000"/>
			<rect x="31" y="20" width="1" height="1" fill="#000000"/>
			<rect x="32" y="20" width="1" height="1" fill="#000000"/>
			<rect x="35" y="20" width="1" height="1" fill="#000000"/>
			<rect x="4" y="21" width="1" height="1" fill="#000000"/>
			<rect x="7" y="21" width="1" height="1" fill="#000000"/>
			<rect x="8" y="21" width="1" height="1" fill="#000000"/>
			<rect x="9" y="21" width="1" height="1" fill="#000000"/>
			<rect x="13" y="21" width="1" height="1" fill="#000000"/>
			<rect x="16" y="21" width="1" height="1" fill="#000000"/>
			<rect x="19" y="21" width="1" height="1" fill="#000000"/>
			<rect x="24" y="21" width="1" height="1" fill="#000000"/>
			<rect x="25" y="21" width="1" height="1" fill="#000000"/>
			<rect x="28" y="21" width="1" height="1" fill="#000000"/>
			<rect x="29" y="21" width="1" height="1" fill="#000000"/>
			<rect x="32" y="21" width="1" height="1" fill="#000000"/>
			<rect x="35" y="21" width="1" height="1" fill="#000000"/>
			<rect x="38" y="21" width="1" height="1" fill="#000000"/>
			<rect x="39" y="21" width="1" height="1" fill="#000000"/>
			<rect x="40" y="21" width="1" height="1" fill="#000000"/>
			<rect x="0" y="22" width="1" height="1" fill="#000000"/>
			<rect x="1" y="22" width="1" height="1" fill="#000000"/>
			<rect x="6" y="22" width="1" height="1" fill="#000000"/>
			<rect x="7" y="22" width="1" height="1" fill="#000000"/>
			<rect x="13" y="22" width="1" height="1" fill="#000000"/>
			<rect x="14" y="22" width="1" height="1" fill="#000000"/>
			<rect x="16" y="22" width="1" height="1" fill="#000000"/>
			<rect x="18" y="22" width="1" height="1" fill="#000000"/>
			<rect x="19" y="22" width="1" height="1" fill="#000000"/>
			<rect x="22" y="22" width="1" height="1" fill="#000000"/>
			<rect x="26" y="22" width="1" height="1" fill="#000000"/>
			<rect x="28" y="22" width="1" height="1" fill="#000000"/>
			<rect x="30" y="22" width="1" height="1" fill="#000000"/>
			<rect x="32" y="22" width="1" height="1" fill="#000000"/>
			<rect x="35" y="22" width="1" height="1" fill="#000000"/>
			<rect x="36" y="22" width="1" height="1" fill="#000000"/>
			<rect x="37" y="22" width="1" height="1" fill="#000000"/>
			<rect x="38" y="22" width="1" height="1" fill="#000000"/>
			<rect x="40" y="22" width="1" height="1" fill="#000000"/>
			<rect x="3" y="23" width="1" height="1" fill="#000000"/>
			<rect x="7" y="23" width="1" height="1" fill="#000000"/>
			<rect x="8" y="23" width="1" height="1" fill="#000000"/>
			<rect x="12" y="23" width="1" height="1" fill="#000000"/>
			<rect x="17" y="23" width="1" height="1" fill="#000000"/>
			<rect x="18" y="23" width="1" height="1" fill="#000000"/>
			<rect x="19" y="23" width="1" height="1" fill="#000000"/>
			<rect x="20" y="23" width="1" height="1" fill="#000000"/>
			<rect x="21" y="23" width="1" height="1" fill="#000000"/>
			<rect x="22" y="23" width="1" height="1" fill="#000000"/>
			<rect x="24" y="23" width="1" height="1" fill="#000000"/>
			<rect x="26" y="23" width="1" height="1" fill="#000000"/>
			<rect x="28" y="23" width="1" height="1" fill="#000000"/>
			<rect x="29" y="23" width="1" height="1" fill="#000000"/>
			<rect x="30" y="23" width="1" height="1" fill="#000000"/>
			<rect x="31" y="23" width="1" height="1" fill="#000000"/>
			<rect x="32" y="23" width="1" height="1" fill="#000000"/>
			<rect x="33" y="23" width="1" height="1" fill="#000000"/>
			<rect x="34" y="23" width="1" height="1" fill="#000000"/>
			<rect x="35" y="23" width="1" height="1" fill="#000000"/>
			<rect x="39" y="23" width="1" height="1" fill="#000000"/>
			<rect x="40" y="23" width="1" height="1" fill="#000000"/>
			<rect x="0" y="24" width="1" height="1" fill="#000000"/>
			<rect x="1" y="24" width="1" height="1" fill="#000000"/>
			<rect x="3" y="24" width="1" height="1" fill="#000000"/>
			<rect x="4" y="24" width="1" height="1" fill="#000000"/>
			<rect x="6" y="24" width="1" height="1" fill="#000000"/>
			<rect x="7" y="24" width="1" height="1" fill="#000000"/>
			<rect x="8" y="24" width="1" height="1" fill="#000000"/>
			<rect x="10" y="24" width="1" height="1" fill="#000000"/>
			<rect x="11" y="24" width="1" height="1" fill="#000000"/>
			<rect x="14" y="24" width="1" height="1" fill="#000000"/>
			<rect x="15" y="24" width="1" height="1" fill="#000000"/>
			<rect x="16" y="24" width="1" height="1" fill="#000000"/>
			<rect x="20" y="24" width="1" height="1" fill="#000000"/>
			<rect x="22" y="24" width="1" height="1" fill="#000000"/>
			<rect x="24" y="24" width="1" height="1" fill="#000000"/>
			<rect x="28" y="24" width="1" height="1" fill="#000000"/>
			<rect x="29" y="24" width="1" height="1" fill="#000000"/>
			<rect x="31" y="24" width="1" height="1" fill="#000000"/>
			<rect x="32" y="24" width="1" height="1" fill="#000000"/>
			<rect x="33" y="24" width="1" height="1" fill="#000000"/>
			<rect x="37" y="24" width="1" height="1" fill="#000000"/>
			<rect x="38" y="24" width="1" height="1" fill="#000000"/>
			<rect x="40" y="24" width="1" height="1" fill="#000000"/>
			<rect x="0" y="25" width="1" height="1" fill="#000000"/>
			<rect x="2" y="25" width="1" height="1" fill="#000000"/>
			<rect x="4" y="25" width="1" height="1" fill="#000000"/>
			<rect x="5" y="25" width="1" height="1" fill="#000000"/>
			<rect x="10" y="25" width="1" height="1" fill="#000000"/>
			<rect x="12" y="25" width="1" height="1" fill="#000000"/>
			<rect x="14" y="25" width="1" height="1" fill="#000000"/>
			<rect x="15" y="25" width="1" height="1" fill="#000000"/>
			<rect x="16" y="25" width="1" height="1" fill="#000000"/>
			<rect x="17" y="25" width="1" height="1" fill="#000000"/>
			<rect x="18" y="25" width="1" height="1" fill="#000000"/>
			<rect x="20" y="25" width="1" height="1" fill="#000000"/>
			<rect x="23" y="25" width="1" height="1" fill="#000000"/>
			<rect x="25" y="25" width="1" height="1" fill="#000000"/>
			<rect x="27" y="25" width="1" height="1" fill="#000000"/>
			<rect x="28" y="25" width="1" height="1" fill="#000000"/>
			<rect x="30" y="25" width="1" height="1" fill="#000000"/>
			<rect x="34" y="25" width="1" height="1" fill="#000000"/>
			<rect x="35" y="25" width="1" height="1" fill="#000000"/>
			<rect x="36" y="25" width="1" height="1" fill="#000000"/>
			<rect x="37" y="25" width="1" height="1" fill="#000000"/>
			<rect x="38" y="25" width="1" height="1" fill="#000000"/>
			<rect x="0" y="26" width="1" height="1" fill="#000000"/>
			<rect x="1" y="26" width="1" height="1" fill="#000000"/>
			<rect x="3" y="26" width="1" height="1" fill="#000000"/>
			<rect x="5" y="26" width="1" height="1" fill="#000000"/>
			<rect x="6" y="26" width="1" height="1" fill="#000000"/>
			<rect x="7" y="26" width="1" height="1" fill="#000000"/>
			<rect x="10" y="26" width="1" height="1" fill="#000000"/>
			<rect x="13" y="26" width="1" height="1" fill="#000000"/>
			<rect x="14" y="26" width="1" height="1" fill="#000000"/>
			<rect x="16" y="26" width="1" height="1" fill="#000000"/>
			<rect x="18" y="26" width="1" height="1" fill="#000000"/>
			<rect x="20" y="26" width="1" height="1" fill="#000000"/>
			<rect x="23" y="26" width="1" height="1" fill="#000000"/>
			<rect x="25" y="26" width="1" height="1" fill="#000000"/>
			<rect x="26" y="26" width="1" height="1" fill="#000000"/>
			<rect x="27" y="26" width="1" height="1" fill="#000000"/>
			<rect x="30" y="26" width="1" height="1" fill="#000000"/>
			<rect x="34" y="26" width="1" height="1" fill="#000000"/>
			<rect x="36" y="26" width="1" height="1" fill="#000000"/>
			<rect x="37" y="26" width="1" height="1" fill="#000000"/>
			<rect x="38" y="26" width="1" height="1" fill="#000000"/>
			<rect x="39" y="26" width="1" height="1" fill="#000000"/>
			<rect x="40" y="26" width="1" height="1" fill="#000000"/>
			<rect x="0" y="27" width="1" height="1" fill="#000000"/>
			<rect x="1" y="27" width="1" height="1" fill="#000000"/>
			<rect x="3" y="27" width="1" height="1" fill="#000000"/>
			<rect x="4" y="27" width="1" height="1" fill="#000000"/>
			<rect x="5" y="27" width="1" height="1" fill="#000000"/>
			<rect x="7" y="27" width="1" height="1" fill="#000000"/>
			<rect x="9" y="27" width="1" height="1" fill="#000000"/>
			<rect x="11" y="27" width="1" height="1" fill="#000000"/>
			<rect x="12" y="27" width="1" height="1" fill="#000000"/>
			<rect x="13" y="27" width="1" height="1" fill="#000000"/>
			<rect x="16" y="27" width="1" height="1" fill="#000000"/>
			<rect x="19" y="27" width="1" height="1" fill="#000000"/>
			<rect x="21" y="27" width="1" height="1" fill="#000000"/>
			<rect x="22" y="27" width="1" height="1" fill="#000000"/>
			<rect x="24" y="27" width="1" height="1" fill="#000000"/>
			<rect x="26" y="27" width="1" height="1" fill="#000000"/>
			<rect x="29" y="27" width="1" height="1" fill="#000000"/>
			<rect x="30" y="27" width="1" height="1" fill="#000000"/>
			<rect x="31" y="27" width="1" height="1" fill="#000000"/>
			<rect x="32" y="27" width="1" height="1" fill="#000000"/>
			<rect x="33" y="27" width="1" height="1" fill="#000000"/>
			<rect x="36" y="27" width="1" height="1" fill="#000000"/>
			<rect x="1" y="28" width="1" height="1" fill="#000000"/>
			<rect x="2" y="28" width="1" height="1" fill="#000000"/>
			<rect x="3" y="28" width="1" height="1" fill="#000000"/>
			<rect x="6" y="28" width="1" height="1" fill="#000000"/>
			<rect x="7" y="28" width="1" height="1" fill="#000000"/>
			<rect x="9" y="28" width="1" height="1" fill="#000000"/>
			<rect x="10" y="28" width="1" height="1" fill="#000000"/>
			<rect x="13" y="28" width="1" height="1" fill="#000000"/>
			<rect x="16" y="28" width="1" height="1" fill="#000000"/>
			<rect x="19" y="28" width="1" height="1" fill="#000000"/>
			<rect x="21" y="28" width="1" height="1" fill="#000000"/>
			<rect x="22" y="28" width="1" height="1" fill="#000000"/>
			<rect x="23" y="28" width="1" height="1" fill="#000000"/>
			<rect x="24" y="28" width="1" height="1" fill="#000000"/>
			<rect x="25" y="28" width="1" height="1" fill="#000000"/>
			<rect x="28" y="28" width="1" height="1" fill="#000000"/>
			<rect x="29" y="28" width="1" height="1" fill="#000000"/>
			<rect x="30" y="28" width="1" height="1" fill="#000000"/>
			<rect x="33" y="28" width="1" height="1" fill="#000000"/>
			<rect x="35" y="28" width="1" height="1" fill="#000000"/>
			<rect x="0" y="29" width="1" height="1" fill="#000000"/>
			<rect x="7" y="29" width="1" height="1" fill="#000000"/>
			<rect x="8" y="29" width="1" height="1" fill="#000000"/>
			<rect x="9" y="29" width="1" height="1" fill="#000000"/>
			<rect x="12" y="29" width="1" height="1" fill="#000000"/>
			<rect x="13" y="29" width="1" height="1" fill="#000000"/>
			<rect x="14" y="29" width="1" height="1" fill="#000000"/>
			<rect x="18" y="29" width="1" height="1" fill="#000000"/>
			<rect x="19" y="29" width="1" height="1" fill="#000000"/>
			<rect x="20" y="29" width="1" height="1" fill="#000000"/>
			<rect x="25" y="29" width="1" height="1" fill="#000000"/>
			<rect x="26" y="29" width="1" height="1" fill="#000000"/>
			<rect x="27" y="29" width="1" height="1" fill="#000000"/>
			<rect x="29" y="29" width="1" height="1" fill="#000000"/>
			<rect x="30" y="29" width="1" height="1" fill="#000000"/>
			<rect x="33" y="29" width="1" height="1" fill="#000000"/>
			<rect x="36" y="29" width="1" height="1" fill="#000000"/>
			<rect x="38" y="29" width="1" height="1" fill="#000000"/>
			<rect x="40" y="29" width="1" height="1" fill="#000000"/>
			<rect x="2" y="30" width="1" height="1" fill="#000000"/>
			<rect x="5" y="30" width="1" height="1" fill="#000000"/>
			<rect x="6" y="30" width="1" height="1" fill="#000000"/>
			<rect x="11" y="30" width="1" height="1" fill="#000000"/>
			<rect x="12" y="30" width="1" height="1" fill="#000000"/>
			<rect x="13" y="30" width="1" height="1" fill="#000000"/>
			<rect x="15" y="30" width="1" height="1" fill="#000000"/>
			<rect x="18" y="30" width="1" height="1" fill="#000000"/>
			<rect x="20" y="30" width="1" height="1" fill="#000000"/>
			<rect x="21" y="30" width="1" height="1" fill="#000000"/>
			<rect x="23" y="30" width="1" height="1" fill="#000000"/>
			<rect x="24" y="30" width="1" height="1" fill="#000000"/>
			<rect x="25" y="30" width="1" height="1" fill="#000000"/>
			<rect x="27" y="30" width="1" height="1" fill="#000000"/>
			<rect x="29" y="30" width="1" height="1" fill="#000000"/>
			<rect x="30" y="30" width="1" height="1" fill="#000000"/>
			<rect x="31" y="30" width="1" height="1" fill="#000000"/>
			<rect x="33" y="30" width="1" height="1" fill="#000000"/>
			<rect x="34" y="30" width="1" height="1" fill="#000000"/>
			<rect x="36" y="30" width="1" height="1" fill="#000000"/>
			<rect x="37" y="30" width="1" height="1" fill="#000000"/>
			<rect x="38" y="30" width="1" height="1" fill="#000000"/>
			<rect x="40" y="30" width="1" height="1" fill="#000000"/>
			<rect x="3" y="31" width="1" height="1" fill="#000000"/>
			<rect x="7" y="31" width="1" height="1" fill="#000000"/>
			<rect x="11" y="31" width="1" height="1" fill="#000000"/>
			<rect x="13" y="31" width="1" height="1" fill="#000000"/>
			<rect x="15" y="31" width="1" height="1" fill="#000000"/>
			<rect x="16" y="31" width="1" height="1" fill="#000000"/>
			<rect x="17" y="31" width="1" height="1" fill="#000000"/>
			<rect x="18" y="31" width="1" height="1" fill="#000000"/>
			<rect x="21" y="31" width="1" height="1" fill="#000000"/>
			<rect x="22" y="31" width="1" height="1" fill="#000000"/>
			<rect x="24" y="31" width="1" height="1" fill="#000000"/>
			<rect x="26" y="31" width="1" height="1" fill="#000000"/>
			<rect x="29" y="31" width="1" height="1" fill="#000000"/>
			<rect x="30" y="31" width="1" height="1" fill="#000000"/>
			<rect x="31" y="31" width="1" height="1" fill="#000000"/>
			<rect x="34" y="31" width="1" height="1" fill="#000000"/>
			<rect x="40" y="31" width="1" height="1" fill="#000000"/>
			<rect x="0" y="32" width="1" height="1" fill="#000000"/>
			<rect x="1" y="32" width="1" height="1" fill="#000000"/>
			<rect x="4" y="32" width="1" height="1" fill="#000000"/>
			<rect x="6" y="32" width="1" height="1" fill="#000000"/>
			<rect x="7" y="32" width="1" height="1" fill="#000000"/>
			<rect x="9" y="32" width="1" height="1" fill="#000000"/>
			<rect x="10" y="32" width="1" height="1" fill="#000000"/>
			<rect x="12" y="32" width="1" height="1" fill="#000000"/>
			<rect x="17" y="32" width="1" height="1" fill="#000000"/>
			<rect x="18" y="32" width="1" height="1" fill="#000000"/>
			<rect x="19" y="32" width="1" height="1" fill="#000000"/>
			<rect x="20" y="32" width="1" height="1" fill="#000000"/>
			<rect x="21" y="32" width="1" height="1" fill="#000000"/>
			<rect x="24" y="32" width="1" height="1" fill="#000000"/>
			<rect x="29" y="32" width="1" height="1" fill="#000000"/>
			<rect x="31" y="32" width="1" height="1" fill="#000000"/>
			<rect x="32" y="32" width="1" height="1" fill="#000000"/>
			<rect x="33" y="32" width="1" height="1" fill="#000000"/>
			<rect x="34" y="32" width="1" height="1" fill="#000000"/>
			<rect x="35" y="32" width="1" height="1" fill="#000000"/>
			<rect x="36" y="32" width="1" height="1" fill="#000000"/>
			<rect x="37" y="32" width="1" height="1" fill="#000000"/>
			<rect x="40" y="32" width="1" height="1" fill="#000000"/>
			<rect x="8" y="33" width="1" height="1" fill="#000000"/>
			<rect x="9" y="33" width="1" height="1" fill="#000000"/>
			<rect x="10" y="33" width="1" height="1" fill="#000000"/>
			<rect x="11" y="33" width="1" height="1" fill="#000000"/>
			<rect x="12" y="33" width="1" height="1" fill="#000000"/>
			<rect x="13" y="33" width="1" height="1" fill="#000000"/>
			<rect x="15" y="33" width="1" height="1" fill="#000000"/>
			<rect x="18" y="33" width="1" height="1" fill="#000000"/>
			<rect x="19" y="33" width="1" height="1" fill="#000000"/>
			<rect x="20" y="33" width="1" height="1" fill="#000000"/>
			<rect x="22" y="33" width="1" height="1" fill="#000000"/>
			<rect x="23" y="33" width="1" height="1" fill="#000000"/>
			<rect x="25" y="33" width="1" height="1" fill="#000000"/>
			<rect x="26" y="33" width="1" height="1" fill="#000000"/>
			<rect x="27" y="33" width="1" height="1" fill="#000000"/>
			<rect x="28" y="33" width="1" height="1" fill="#000000"/>
			<rect x="30" y="33" width="1" height="1" fill="#000000"/>
			<rect x="31" y="33" width="1" height="1" fill="#000000"/>
			<rect x="32" y="33" width="1" height="1" fill="#000000"/>
			<rect x="36" y="33" width="1" height="1" fill="#000000"/>
			<rect x="37" y="33" width="1" height="1" fill="#000000"/>
			<rect x="40" y="33" width="1" height="1" fill="#000000"/>
			<rect x="0" y="34" width="1" height="1" fill="#000000"/>
			<rect x="1" y="34" width="1" height="1" fill="#000000"/>
			<rect x="2" y="34" width="1" height="1" fill="#000000"/>
			<rect x="3" y="34" width="1" height="1" fill="#000000"/>
			<rect x="4" y="34" width="1" height="1" fill="#000000"/>
			<rect x="5" y="34" width="1" height="1" fill="#000000"/>
			<rect x="6" y="34" width="1" height="1" fill="#000000"/>
			<rect x="9" y="34" width="1" height="1" fill="#000000"/>
			<rect x="10" y="34" width="1" height="1" fill="#000000"/>
			<rect x="11" y="34" width="1" height="1" fill="#000000"/>
			<rect x="15" y="34" width="1" height="1" fill="#000000"/>
			<rect x="16" y="34" width="1" height="1" fill="#000000"/>
			<rect x="17" y="34" width="1" height="1" fill="#000000"/>
			<rect x="20" y="34" width="1" height="1" fill="#000000"/>
			<rect x="21" y="34" width="1" height="1" fill="#000000"/>
			<rect x="22" y="34" width="1" height="1" fill="#000000"/>
			<rect x="23" y="34" width="1" height="1" fill="#000000"/>
			<rect x="24" y="34" width="1" height="1" fill="#000000"/>
			<rect x="25" y="34" width="1" height="1" fill="#000000"/>
			<rect x="26" y="34" width="1" height="1" fill="#000000"/>
			<rect x="27" y="34" width="1" height="1" fill="#000000"/>
			<rect x="28" y="34" width="1" height="1" fill="#000000"/>
			<rect x="30" y="34" width="1" height="1" fill="#000000"/>
			<rect x="31" y="34" width="1" height="1" fill="#000000"/>
			<rect x="32" y="34" width="1" height="1" fill="#000000"/>
			<rect x="34" y="34" width="1" height="1" fill="#000000"/>
			<rect x="36" y="34" width="1" height="1" fill="#000000"/>
			<rect x="38" y="34" width="1" height="1" fill="#000000"/>
			<rect x="39" y="34" width="1" height="1" fill="#000000"/>
			<rect x="40" y="34" width="1" height="1" fill="#000000"/>
			<rect x="0" y="35" width="1" height="1" fill="#000000"/>
			<rect x="6" y="35" width="1" height="1" fill="#000000"/>
			<rect x="8" y="35" width="1" height="1" fill="#000000"/>
			<rect x="10" y="35" width="1" height="1" fill="#000000"/>
			<rect x="11" y="35" width="1" height="1" fill="#000000"/>
			<rect x="12" y="35" width="1" height="1" fill="#000000"/>
			<rect x="14" y="35" width="1" height="1" fill="#000000"/>
			<rect x="17" y="35" width="1" height="1" fill="#000000"/>
			<rect x="18" y="35" width="1" height="1" fill="#000000"/>
			<rect x="19" y="35" width="1" height="1" fill="#000000"/>
			<rect x="21" y="35" width="1" height="1" fill="#000000"/>
			<rect x="22" y="35" width="1" height="1" fill="#000000"/>
			<rect x="23" y="35" width="1" height="1" fill="#000000"/>
			<rect x="26" y="35" width="1" height="1" fill="#000000"/>
			<rect x="32" y="35" width="1" height="1" fill="#000000"/>
			<rect x="36" y="35" width="1" height="1" fill="#000000"/>
			<rect x="0" y="36" width="1" height="1" fill="#000000"/>
			<rect x="2" y="36" width="1" height="1" fill="#000000"/>
			<rect x="3" y="36" width="1" height="1" fill="#000000"/>
			<rect x="4" y="36" width="1" height="1" fill="#000000"/>
			<rect x="6" y="36" width="1" height="1" fill="#000000"/>
			<rect x="8" y="36" width="1" height="1" fill="#000000"/>
			<rect x="9" y="36" width="1" height="1" fill="#000000"/>
			<rect x="10" y="36" width="1" height="1" fill="#000000"/>
			<rect x="12" y="36" width="1" height="1" fill="#000000"/>
			<rect x="13" y="36" width="1" height="1" fill="#000000"/>
			<rect x="14" y="36" width="1" height="1" fill="#000000"/>
			<rect x="18" y="36" width="1" height="1" fill="#000000"/>
			<rect x="19" y="36" width="1" height="1" fill="#000000"/>
			<rect x="20" y="36" width="1" height="1" fill="#000000"/>
			<rect x="26" y="36" width="1" height="1" fill="#000000"/>
			<rect x="27" y="36" width="1" height="1" fill="#000000"/>
			<rect x="28" y="36" width="1" height="1" fill="#000000"/>
			<rect x="30" y="36" width="1" height="1" fill="#000000"/>
			<rect x="31" y="36" width="1" height="1" fill="#000000"/>
			<rect x="32" y="36" width="1" height="1" fill="#000000"/>
			<rect x="33" y="36" width="1" height="1" fill="#000000"/>
			<rect x="34" y="36" width="1" height="1" fill="#000000"/>
			<rect x="35" y="36" width="1" height="1" fill="#000000"/>
			<rect x="36" y="36" width="1" height="1" fill="#000000"/>
			<rect x="37" y="36" width="1" height="1" fill="#000000"/>
			<rect x="0" y="37" width="1" height="1" fill="#000000"/>
			<rect x="2" y="37" width="1" height="1" fill="#000000"/>
			<rect x="3" y="37" width="1" height="1" fill="#000000"/>
			<rect x="4" y="37" width="1" height="1" fill="#000000"/>
			<rect x="6" y="37" width="1" height="1" fill="#000000"/>
			<rect x="9" y="37" width="1" height="1" fill="#000000"/>
			<rect x="10" y="37" width="1" height="1" fill="#000000"/>
			<rect x="13" y="37" width="1" height="1" fill="#000000"/>
			<rect x="16" y="37" width="1" height="1" fill="#000000"/>
			<rect x="19" y="37" width="1" height="1" fill="#000000"/>
			<rect x="24" y="37" width="1" height="1" fill="#000000"/>
			<rect x="26" y="37" width="1" height="1" fill="#000000"/>
			<rect x="28" y="37" width="1" height="1" fill="#000000"/>
			<rect x="31" y="37" width="1" height="1" fill="#000000"/>
			<rect x="33" y="37" width="1" height="1" fill="#000000"/>
			<rect x="38" y="37" width="1" height="1" fill="#000000"/>
			<rect x="40" y="37" width="1" height="1" fill="#000000"/>
			<rect x="0" y="38" width="1" height="1" fill="#000000"/>
			<rect x="2" y="38" width="1" height="1" fill="#000000"/>
			<rect x="3" y="38" width="1" height="1" fill="#000000"/>
			<rect x="4" y="38" width="1" height="1" fill="#000000"/>
			<rect x="6" y="38" width="1" height="1" fill="#000000"/>
			<rect x="14" y="38" width="1" height="1" fill="#000000"/>
			<rect x="16" y="38" width="1" height="1" fill="#000000"/>
			<rect x="18" y="38" width="1" height="1" fill="#000000"/>
			<rect x="19" y="38" width="1" height="1" fill="#000000"/>
			<rect x="22" y="38" width="1" height="1" fill="#000000"/>
			<rect x="23" y="38" width="1" height="1" fill="#000000"/>
			<rect x="26" y="38" width="1" height="1" fill="#000000"/>
			<rect x="27" y="38" width="1" height="1" fill="#000000"/>
			<rect x="28" y="38" width="1" height="1" fill="#000000"/>
			<rect x="29" y="38" width="1" height="1" fill="#000000"/>
			<rect x="33" y="38" width="1" height="1" fill="#000000"/>
			<rect x="35" y="38" width="1" height="1" fill="#000000"/>
			<rect x="38" y="38" width="1" height="1" fill="#000000"/>
			<rect x="39" y="38" width="1" height="1" fill="#000000"/>
			<rect x="40" y="38" width="1" height="1" fill="#000000"/>
			<rect x="0" y="39" width="1" height="1" fill="#000000"/>
			<rect x="6" y="39" width="1" height="1" fill="#000000"/>
			<rect x="8" y="39" width="1" height="1" fill="#000000"/>
			<rect x="10" y="39" width="1" height="1" fill="#000000"/>
			<rect x="12" y="39" width="1" height="1" fill="#000000"/>
			<rect x="14" y="39" width="1" height="1" fill="#000000"/>
			<rect x="19" y="39" width="1" height="1" fill="#000000"/>
			<rect x="20" y="39" width="1" height="1" fill="#000000"/>
			<rect x="21" y="39" width="1" height="1" fill="#000000"/>
			<rect x="24" y="39" width="1" height="1" fill="#000000"/>
			<rect x="26" y="39" width="1" height="1" fill="#000000"/>
			<rect x="29" y="39" width="1" height="1" fill="#000000"/>
			<rect x="30" y="39" width="1" height="1" fill="#000000"/>
			<rect x="32" y="39" width="1" height="1" fill="#000000"/>
			<rect x="34" y="39" width="1" height="1" fill="#000000"/>
			<rect x="36" y="39" width="1" height="1" fill="#000000"/>
			<rect x="37" y="39" width="1" height="1" fill="#000000"/>
			<rect x="39" y="39" width="1" height="1" fill="#000000"/>
			<rect x="40" y="39" width="1" height="1" fill="#000000"/>
			<rect x="0" y="40" width="1" height="1" fill="#000000"/>
			<rect x="1" y="40" width="1" height="1" fill="#000000"/>
			<rect x="2" y="40" width="1" height="1" fill="#000000"/>
			<rect x="3" y="40" width="1" height="1" fill="#000000"/>
			<rect x="4" y="40" width="1" height="1" fill="#000000"/>
			<rect x="5" y="40" width="1" height="1" fill="#000000"/>
			<rect x="6" y="40" width="1" height="1" fill="#000000"/>
			<rect x="8" y="40" width="1" height="1" fill="#000000"/>
			<rect x="9" y="40" width="1" height="1" fill="#000000"/>
			<rect x="11" y="40" width="1" height="1" fill="#000000"/>
			<rect x="15" y="40" width="1" height="1" fill="#000000"/>
			<rect x="16" y="40" width="1" height="1" fill="#000000"/>
			<rect x="18" y="40" width="1" height="1" fill="#000000"/>
			<rect x="20" y="40" width="1" height="1" fill="#000000"/>
			<rect x="21" y="40" width="1" height="1" fill="#000000"/>
			<rect x="24" y="40" width="1" height="1" fill="#000000"/>
			<rect x="29" y="40" width="1" height="1" fill="#000000"/>
			<rect x="31" y="40" width="1" height="1" fill="#000000"/>
			<rect x="32" y="40" width="1" height="1" fill="#000000"/>
			<rect x="33" y="40" width="1" height="1" fill="#000000"/>
			<rect x="34" y="40" width="1" height="1" fill="#000000"/>
			<rect x="35" y="40" width="1" height="1" fill="#000000"/>
			<rect x="38" y="40" width="1" height="1" fill="#000000"/>
			<rect x="39" y="40" width="1" height="1" fill="#000000"/>
		</g>
	</g>
</svg>
